<?xml version="1.0" encoding="UTF-8"?>
<session version="1.0">
<refactoring comment="Rename type &apos;com.example.objecttester.render.Link&apos; to &apos;RLink&apos;&#x0D;&#x0A;- Original project: &apos;ObjectTester&apos;&#x0D;&#x0A;- Original element: &apos;com.example.objecttester.render.Link&apos;&#x0D;&#x0A;- Renamed element: &apos;com.example.objecttester.render.RLink&apos;&#x0D;&#x0A;- Update references to refactored element&#x0D;&#x0A;- Update textual occurrences in comments and strings" description="Rename type &apos;Link&apos;" flags="589830" id="org.eclipse.jdt.ui.rename.type" input="/src&lt;com.example.objecttester.render{Link.java[Link" matchStrategy="1" name="RLink" qualified="false" references="true" similarDeclarations="false" stamp="1428379464301" textual="false" version="1.0"/>
</session>